com\cursjava\academia2\controladores\AlumnoController.class
com\cursjava\academia2\controladores\CursoController.class
com\cursjava\academia2\modelos\Alumno.class
com\cursjava\academia2\App.class
com\cursjava\academia2\DBConn.class
com\cursjava\academia2\vistas\alumnos\Lista.class
com\cursjava\academia2\modelos\Curso.class
com\cursjava\academia2\vistas\cursos\Lista.class
